<?xml version="1.0" encoding="UTF-8" standalone="no"?>
<svg width="18px" height="25px" viewBox="0 0 18 25" version="1.1" xmlns="http://www.w3.org/2000/svg" xmlns:xlink="http://www.w3.org/1999/xlink" xmlns:sketch="http://www.bohemiancoding.com/sketch/ns">
    <!-- Generator: Sketch 3.5.1 (25234) - http://www.bohemiancoding.com/sketch -->
    <title>noun_12833_cc</title>
    <desc>Created with Sketch.</desc>
    <defs></defs>
    <g id="Page-1" stroke="none" stroke-width="1" fill="none" fill-rule="evenodd" sketch:type="MSPage">
        <g id="noun_12833_cc" sketch:type="MSLayerGroup" fill="#BBBBBB">
            <g id="Group" sketch:type="MSShapeGroup">
                <g id="Shape">
                    <path d="M6.49409722,20.0503472 L11.3069444,20.0503472 L11.3069444,24.771875 L6.49409722,24.771875 L6.49409722,20.0503472 L6.49409722,20.0503472 Z"></path>
                    <path d="M12.1059028,19.4229167 L14.8854167,19.4229167 L14.8854167,22.1489583 L12.1059028,22.1489583 L12.1059028,19.4229167 L12.1059028,19.4229167 Z"></path>
                    <path d="M14.3111111,16.85 L16.2753472,16.85 L16.2753472,18.7767361 L14.3111111,18.7767361 L14.3111111,16.85 L14.3111111,16.85 Z"></path>
                    <path d="M0.302083333,8.98923611 C0.408680556,3.91701389 3.70729167,0.228472222 8.92118056,0.228472222 C15.5895833,0.228472222 17.7534722,4.37847222 17.7534722,7.07430556 C17.7534722,13.8493056 11.9013889,12.9263889 11.2979167,17.2184028 L11.2979167,18.5666667 L6.509375,18.5666667 L6.509375,16.9701389 C7.00625,10.8340278 12.2909722,11.4017361 12.1847222,7.57083333 C12.1847222,5.40729167 11.0493056,4.37881944 9.16979167,4.37881944 C6.61597222,4.37881944 5.51631944,6.47118056 5.51631944,8.98958333 L0.302083333,8.98958333 L0.302083333,8.98923611 Z"></path>
                </g>
            </g>
        </g>
    </g>
</svg>