<?xml version="1.0" encoding="UTF-8" standalone="no"?>
<svg width="32px" height="21px" viewBox="0 0 32 21" version="1.1" xmlns="http://www.w3.org/2000/svg" xmlns:xlink="http://www.w3.org/1999/xlink" xmlns:sketch="http://www.bohemiancoding.com/sketch/ns">
    <!-- Generator: Sketch 3.5.1 (25234) - http://www.bohemiancoding.com/sketch -->
    <title>noun_106458 copy 2</title>
    <desc>Created with Sketch.</desc>
    <defs></defs>
    <g id="Page-1" stroke="none" stroke-width="1" fill="none" fill-rule="evenodd" sketch:type="MSPage">
        <g id="noun_106458-copy-2" sketch:type="MSLayerGroup" fill="#567CA3">
            <g id="Group" sketch:type="MSShapeGroup">
                <path d="M9.78524444,7.28589247 L31.7201778,7.28589247 L31.7201778,14.3607527 L9.78524444,14.3607527 L9.78524444,7.28589247 Z" id="Rectangle-path"></path>
                <path d="M6.04444444,15.6706667 C4.81137778,15.6706667 3.81191111,16.6983441 3.81191111,17.9662151 C3.81191111,19.234086 4.81137778,20.2606667 6.04444444,20.2606667 C7.27715556,20.2606667 8.27768889,19.2326237 8.27768889,17.9662151 C8.27733333,16.6983441 7.27715556,15.6706667 6.04444444,15.6706667 M6.04444444,18.9635484 C5.50897778,18.9635484 5.07413333,18.5167957 5.07413333,17.9662151 C5.07413333,17.4149032 5.50933333,16.9685161 6.04444444,16.9685161 C6.58026667,16.9685161 7.01475556,17.4152688 7.01475556,17.9662151 C7.01475556,18.5167957 6.57991111,18.9635484 6.04444444,18.9635484" id="Shape"></path>
                <path d="M8.87893333,6.60070968 L4.88817778,6.60070968 C3.69173333,6.60070968 2.69368889,6.66870968 2.22862222,7.83092473 C1.7632,8.99350538 0.699377778,12.0026882 0.699377778,12.0026882 L0.699377778,15.7865591 L0,15.7865591 L0,18.2378495 L3.14631111,18.2378495 C3.13777778,18.147914 3.1328,18.0572473 3.1328,17.9665806 C3.1328,16.3137419 4.43591111,14.9731183 6.04444444,14.9731183 C7.65262222,14.9731183 8.95573333,16.3137419 8.95573333,17.9665806 C8.95573333,18.0572473 8.95075556,18.147914 8.94293333,18.2378495 L12.4124444,18.2378495 L13.8599111,16.8862581 L17.3482667,16.8862581 C17.6224,16.1605591 18.1624889,15.5704946 18.8494222,15.248043 L8.87928889,15.248043 L8.87893333,6.60070968 L8.87893333,6.60070968 L8.87893333,6.60070968 Z M7.45031111,10.0570108 L5.72906667,11.6875484 L1.99075556,11.6875484 C2.22862222,11.0203441 2.79644444,9.43477419 3.08124444,8.72443011 C3.44568889,7.81301075 4.22826667,7.75963441 5.16622222,7.75963441 L7.45031111,7.75963441 L7.45031111,10.0570108 L7.45031111,10.0570108 Z M22.7740444,16.8866237 L23.9740444,16.8866237 C24.2481778,16.1594624 24.7889778,15.5693978 25.4752,15.2469462 L21.2725333,15.2469462 C21.9584,15.5704946 22.4992,16.1590968 22.7740444,16.8866237 L22.7740444,16.8866237 Z M27.8993778,15.2469462 C28.5848889,15.5708602 29.1267556,16.1590968 29.4008889,16.8866237 L32,16.8866237 L32,15.2469462 L27.8993778,15.2469462 L27.8993778,15.2469462 Z" id="Shape"></path>
                <path d="M20.0600889,15.6706667 C18.8273778,15.6706667 17.8272,16.6983441 17.8272,17.9662151 C17.8272,19.234086 18.8273778,20.2606667 20.0600889,20.2606667 C21.2938667,20.2606667 22.2936889,19.2326237 22.2936889,17.9662151 C22.2936889,16.6983441 21.2938667,15.6706667 20.0600889,15.6706667 M20.0600889,18.9635484 C19.5246222,18.9635484 19.0897778,18.5167957 19.0897778,17.9662151 C19.0897778,17.4149032 19.5264,16.9685161 20.0600889,16.9685161 C20.5962667,16.9685161 21.0304,17.4152688 21.0304,17.9662151 C21.0304,18.5167957 20.5962667,18.9635484 20.0600889,18.9635484" id="Shape"></path>
                <path d="M26.6876444,15.6706667 C25.4538667,15.6706667 24.4536889,16.6983441 24.4536889,17.9662151 C24.4536889,19.234086 25.4538667,20.2606667 26.6876444,20.2606667 C27.9203556,20.2606667 28.9191111,19.2326237 28.9191111,17.9662151 C28.9191111,16.6983441 27.92,15.6706667 26.6876444,15.6706667 M26.6876444,18.9635484 C26.1514667,18.9635484 25.7173333,18.5167957 25.7173333,17.9662151 C25.7173333,17.4149032 26.1532444,16.9685161 26.6876444,16.9685161 C27.2231111,16.9685161 27.6579556,17.4152688 27.6579556,17.9662151 C27.6568889,18.5167957 27.2227556,18.9635484 26.6876444,18.9635484" id="Shape"></path>
                <path d="M14.4114514,4.24476524 C15.0145641,4.36677498 15.4468001,4.95191725 15.4471154,5.56007428 C15.4468001,6.2628125 14.8764756,6.83282178 14.1740526,6.83282178 C13.6667822,6.83282178 13.2326546,6.53615213 13.0255218,6.11022152 C12.8959455,5.8431873 13.2953934,5.64929587 13.4252849,5.91633008 C13.5621124,6.19786675 13.8455407,6.38892075 14.1740526,6.38892075 C14.6315103,6.38892075 15.0025838,6.01753195 15.0025838,5.56007428 C15.0025838,5.08653781 14.6223675,4.67069585 14.1816191,4.6659668 C14.115097,4.66407517 14.0646537,4.6401146 14.029974,4.60385848 C13.9924568,4.56697182 13.9681809,4.51400636 13.9681809,4.44401628 L13.969442,1 L14.4108208,1.57253153 C14.0744422,1.11407251 14.4114514,4.24476524 14.4114514,4.24476524 Z" id="Path" transform="translate(14.223558, 3.916411) scale(-1, 1) translate(-14.223558, -3.916411) "></path>
                <path d="M10,3.50964952 C10,3.22817786 10.2319336,3 10.5,3 L10.5,3 C10.7761424,3 11,3.22765279 11,3.50964952 L11,12.4903505 C11,12.7718221 10.7680664,13 10.5,13 L10.5,13 C10.2238576,13 10,12.7723472 10,12.4903505 L10,3.50964952 Z" id="Rectangle-2"></path>
                <path d="M11.828948,0.347044895 C11.828948,0.0721734468 12.0608816,-0.150653889 12.328948,-0.150653889 L12.328948,-0.150653889 C12.6050903,-0.150653889 12.828948,0.0641898612 12.828948,0.347044895 L12.828948,4.35164733 C12.828948,4.62651878 12.5970144,4.84934611 12.328948,4.84934611 L12.328948,4.84934611 C12.0528056,4.84934611 11.828948,4.63450236 11.828948,4.35164733 L11.828948,0.347044895 Z" id="Rectangle-2" transform="translate(12.328948, 2.349346) rotate(-119.000000) translate(-12.328948, -2.349346) "></path>
            </g>
        </g>
    </g>
</svg>